{
    "type": "immersiveengineering:mineral_mix",
    "ores": [
        {
            "chance": 0.70,
            "output": {
                "item": "thermal:silver_ore"
            }
        },
        {
            "chance": 0.20,
            "output": {
                "item": "thermal:lead_ore"
            }
        },
        {
            "chance": 0.05,
            "output": {
                "item": "minecraft:gold_ore"
            }
        },
        {
            "chance": 0.05,
            "output": {
                "item": "thermal:raw_silver_block"
            }
        }
    ],
    "spoils": [
        {
            "chance": 0.2,
            "output": {
                "item": "minecraft:gravel"
            }
        },
        {
            "chance": 0.5,
            "output": {
                "item": "minecraft:cobblestone"
            }
        }
    ],
    "dimensions": [
        "minecraft:overworld",
        "twilightforest:twilight_forest",
        "javd:void"
    ],
    "weight": 1,
    "fail_chance": 0.15
}